Chapter 2 Introduction | Time Series 1
…
2.2 Time series decomposition

If your time series has a seasonal component to it, a useful visualization is the decomposition. We will first look at the STL decomposition (which can only do the additive decomposition, NOT multiplicative!). The following code creates the decomposition and then plots it:

# Time Series Decomposition ...STL#
dcmp <- USAirlines_ts |>
  model(stl = STL(Passengers))
components(dcmp)

## # A dable: 219 x 7 [1M]
## # Key:     .model [1]
## # :        Passengers = trend + season_year + remainder
##    .model   Month2 Passengers  trend season_year remainder
##    <chr>     <mth>      <dbl>  <dbl>       <dbl>     <dbl>
##  1 stl    1990 Jan      34348 39033.      -4676.     -8.97
##  2 stl    1990 Feb      33536 38897.      -5842.    481.  
##  3 stl    1990 Mar      40578 38762.       1238.    578.  
##  4 stl    1990 Apr      38267 38626.       -563.    204.  
##  5 stl    1990 May      38249 38494.        378.   -623.  
##  6 stl    1990 Jun      40792 38362.       2950.   -519.  
##  7 stl    1990 Jul      42225 38229.       5219.  -1223.  
##  8 stl    1990 Aug      44943 38090.       6551.    302.  
##  9 stl    1990 Sep      35708 37951.      -1956.   -287.  
## 10 stl    1990 Oct      38286 37812.        345.    129.  
## # ℹ 209 more rows
## # ℹ 1 more variable: season_adjust <dbl>
…
